<svg width="15" height="12" viewBox="0 0 15 12" fill="none" xmlns="http://www.w3.org/2000/svg">
<path d="M0 5.95794L1.89488 3.94385L6.95672 9.32414L5.06185 11.3382L0 5.95794Z" fill="white"/>
<path d="M3.78967 9.98592L13.1051 0L14.9999 2.01408L5.72432 12L3.78967 9.98592Z" fill="white"/>
</svg>
