<svg width="13" height="16" viewBox="0 0 13 16" fill="none" xmlns="http://www.w3.org/2000/svg">
<path fill-rule="evenodd" clip-rule="evenodd" d="M0 5.41511e-05C6.49994 3.15794 11.2272 7.10531 12.9999 15C12.9999 15.336 12.9903 15.6695 12.9715 16H12.9999L12.9999 15L12.9999 0H0V5.41511e-05Z" fill="#F3F3F3"/>
</svg>
