<svg width="12" height="12" viewBox="0 0 12 12" fill="none" xmlns="http://www.w3.org/2000/svg">
<path d="M2.00353 0.000469074L0 2.00391L9.99647 11.9999L12 9.99645L2.00353 0.000469074Z" fill="white"/>
<path d="M9.99647 0.000111438L0 9.99609L2.00353 11.9995L12 2.00355L9.99647 0.000111438Z" fill="white"/>
</svg>
